Epoch 0: 8994 / 10000
Epoch 1: 9162 / 10000
Epoch 2: 9255 / 10000
Epoch 3: 9282 / 10000
Epoch 4: 9351 / 10000
Epoch 5: 9383 / 10000
Epoch 6: 9401 / 10000
Epoch 7: 9403 / 10000
Epoch 8: 9410 / 10000
Epoch 9: 9442 / 10000
Epoch 10: 9434 / 10000
Epoch 11: 9436 / 10000
Epoch 12: 9446 / 10000
Epoch 13: 9422 / 10000
Epoch 14: 9464 / 10000
Epoch 15: 9443 / 10000
Epoch 16: 9428 / 10000
Epoch 17: 9441 / 10000
Epoch 18: 9490 / 10000
Epoch 19: 9465 / 10000
Epoch 20: 9473 / 10000
Epoch 21: 9461 / 10000
Epoch 22: 9477 / 10000
Epoch 23: 9497 / 10000
Epoch 24: 9494 / 10000
Epoch 25: 9458 / 10000
Epoch 26: 9486 / 10000
Epoch 27: 9447 / 10000
Epoch 28: 9469 / 10000
Epoch 29: 9482 / 10000